<mxfile host="app.diagrams.net" modified="2022-02-25T11:02:41.596Z" agent="5.0 (X11)" etag="z8FkZfFvRXvxCZjq_Brm" version="16.6.4" type="gitlab">
  <diagram id="wnvql1O7DgIMnomoLFVq" name="Page-1">
    <mxGraphModel dx="2062" dy="1115" grid="1" gridSize="10" guides="1" tooltips="1" connect="1" arrows="1" fold="1" page="1" pageScale="1" pageWidth="850" pageHeight="1100" background="#ffffff" math="0" shadow="0">
      <root>
        <mxCell id="0" />
        <mxCell id="1" parent="0" />
        <mxCell id="wNIGlw4H_V67VYTFV1LY-62" value="" style="shape=hexagon;perimeter=hexagonPerimeter2;whiteSpace=wrap;html=1;fixedSize=1;fontSize=18;" parent="1" vertex="1">
          <mxGeometry x="375" y="300" width="120" height="80" as="geometry" />
        </mxCell>
        <mxCell id="wNIGlw4H_V67VYTFV1LY-1" value="" style="rounded=0;whiteSpace=wrap;html=1;" parent="1" vertex="1">
          <mxGeometry x="650" y="160" width="120" height="60" as="geometry" />
        </mxCell>
        <mxCell id="wNIGlw4H_V67VYTFV1LY-2" value="" style="rounded=0;whiteSpace=wrap;html=1;" parent="1" vertex="1">
          <mxGeometry x="450" y="160" width="120" height="60" as="geometry" />
        </mxCell>
        <mxCell id="wNIGlw4H_V67VYTFV1LY-3" value="" style="shape=cylinder3;whiteSpace=wrap;html=1;boundedLbl=1;backgroundOutline=1;size=15;" parent="1" vertex="1">
          <mxGeometry x="320" y="150" width="60" height="80" as="geometry" />
        </mxCell>
        <mxCell id="wNIGlw4H_V67VYTFV1LY-5" value="" style="shape=cylinder3;whiteSpace=wrap;html=1;boundedLbl=1;backgroundOutline=1;size=15;" parent="1" vertex="1">
          <mxGeometry x="590" y="300" width="60" height="80" as="geometry" />
        </mxCell>
        <mxCell id="wNIGlw4H_V67VYTFV1LY-9" value="PG" style="text;html=1;align=center;verticalAlign=middle;resizable=0;points=[];autosize=1;strokeColor=none;fillColor=none;" parent="1" vertex="1">
          <mxGeometry x="605" y="340" width="30" height="20" as="geometry" />
        </mxCell>
        <mxCell id="wNIGlw4H_V67VYTFV1LY-10" value="REDIS" style="text;html=1;align=center;verticalAlign=middle;resizable=0;points=[];autosize=1;strokeColor=none;fillColor=none;" parent="1" vertex="1">
          <mxGeometry x="325" y="190" width="50" height="20" as="geometry" />
        </mxCell>
        <mxCell id="wNIGlw4H_V67VYTFV1LY-12" value="&lt;div&gt;AUTHORIZAION&lt;/div&gt;" style="text;html=1;align=center;verticalAlign=middle;resizable=0;points=[];autosize=1;strokeColor=none;fillColor=none;" parent="1" vertex="1">
          <mxGeometry x="455" y="180" width="110" height="20" as="geometry" />
        </mxCell>
        <mxCell id="wNIGlw4H_V67VYTFV1LY-13" value="&lt;div&gt;DASHBOARD&lt;/div&gt;" style="text;html=1;align=center;verticalAlign=middle;resizable=0;points=[];autosize=1;strokeColor=none;fillColor=none;" parent="1" vertex="1">
          <mxGeometry x="665" y="180" width="90" height="20" as="geometry" />
        </mxCell>
        <mxCell id="wNIGlw4H_V67VYTFV1LY-14" value="&lt;div&gt;DISTRIBUTOR&lt;/div&gt;&lt;div&gt;(STATEFULL)&lt;br&gt;&lt;/div&gt;" style="whiteSpace=wrap;html=1;" parent="1" vertex="1">
          <mxGeometry x="560" y="410" width="120" height="60" as="geometry" />
        </mxCell>
        <mxCell id="wNIGlw4H_V67VYTFV1LY-15" value="TESTER" style="whiteSpace=wrap;html=1;" parent="1" vertex="1">
          <mxGeometry x="560" y="590" width="120" height="60" as="geometry" />
        </mxCell>
        <mxCell id="wNIGlw4H_V67VYTFV1LY-19" value="RABBIT MQ" style="shape=process;whiteSpace=wrap;html=1;backgroundOutline=1;" parent="1" vertex="1">
          <mxGeometry x="560" y="500" width="120" height="60" as="geometry" />
        </mxCell>
        <mxCell id="wNIGlw4H_V67VYTFV1LY-20" value="RABBIT MQ" style="shape=process;whiteSpace=wrap;html=1;backgroundOutline=1;" parent="1" vertex="1">
          <mxGeometry x="560" y="690" width="120" height="60" as="geometry" />
        </mxCell>
        <mxCell id="wNIGlw4H_V67VYTFV1LY-21" value="&lt;div&gt;MAIL&lt;/div&gt;&lt;div&gt;&amp;nbsp;NOTIFIER&lt;/div&gt;" style="whiteSpace=wrap;html=1;" parent="1" vertex="1">
          <mxGeometry x="440" y="820" width="120" height="60" as="geometry" />
        </mxCell>
        <mxCell id="wNIGlw4H_V67VYTFV1LY-22" value="TELEGRAM NOTIFIER" style="whiteSpace=wrap;html=1;" parent="1" vertex="1">
          <mxGeometry x="675" y="820" width="120" height="60" as="geometry" />
        </mxCell>
        <mxCell id="wNIGlw4H_V67VYTFV1LY-23" value="" style="endArrow=none;html=1;rounded=0;exitX=0.5;exitY=1;exitDx=0;exitDy=0;entryX=0.5;entryY=1;entryDx=0;entryDy=0;" parent="1" source="wNIGlw4H_V67VYTFV1LY-2" target="wNIGlw4H_V67VYTFV1LY-1" edge="1">
          <mxGeometry width="50" height="50" relative="1" as="geometry">
            <mxPoint x="485" y="250" as="sourcePoint" />
            <mxPoint x="755" y="250" as="targetPoint" />
            <Array as="points">
              <mxPoint x="510" y="250" />
              <mxPoint x="710" y="250" />
            </Array>
          </mxGeometry>
        </mxCell>
        <mxCell id="wNIGlw4H_V67VYTFV1LY-26" value="" style="endArrow=classic;html=1;rounded=0;entryX=0.5;entryY=0;entryDx=0;entryDy=0;entryPerimeter=0;" parent="1" target="wNIGlw4H_V67VYTFV1LY-5" edge="1">
          <mxGeometry width="50" height="50" relative="1" as="geometry">
            <mxPoint x="620" y="250" as="sourcePoint" />
            <mxPoint x="530" y="570" as="targetPoint" />
          </mxGeometry>
        </mxCell>
        <mxCell id="wNIGlw4H_V67VYTFV1LY-27" value="" style="endArrow=classic;html=1;rounded=0;exitX=0.5;exitY=1;exitDx=0;exitDy=0;exitPerimeter=0;entryX=0.5;entryY=0;entryDx=0;entryDy=0;" parent="1" source="wNIGlw4H_V67VYTFV1LY-5" target="wNIGlw4H_V67VYTFV1LY-14" edge="1">
          <mxGeometry width="50" height="50" relative="1" as="geometry">
            <mxPoint x="480" y="620" as="sourcePoint" />
            <mxPoint x="530" y="570" as="targetPoint" />
          </mxGeometry>
        </mxCell>
        <mxCell id="wNIGlw4H_V67VYTFV1LY-28" value="" style="endArrow=classic;html=1;rounded=0;entryX=0.5;entryY=0;entryDx=0;entryDy=0;" parent="1" source="wNIGlw4H_V67VYTFV1LY-14" target="wNIGlw4H_V67VYTFV1LY-19" edge="1">
          <mxGeometry width="50" height="50" relative="1" as="geometry">
            <mxPoint x="480" y="600" as="sourcePoint" />
            <mxPoint x="530" y="550" as="targetPoint" />
          </mxGeometry>
        </mxCell>
        <mxCell id="wNIGlw4H_V67VYTFV1LY-29" value="" style="endArrow=classic;html=1;rounded=0;entryX=0.5;entryY=0;entryDx=0;entryDy=0;exitX=0.5;exitY=1;exitDx=0;exitDy=0;" parent="1" source="wNIGlw4H_V67VYTFV1LY-19" target="wNIGlw4H_V67VYTFV1LY-15" edge="1">
          <mxGeometry width="50" height="50" relative="1" as="geometry">
            <mxPoint x="480" y="620" as="sourcePoint" />
            <mxPoint x="530" y="570" as="targetPoint" />
          </mxGeometry>
        </mxCell>
        <mxCell id="wNIGlw4H_V67VYTFV1LY-30" value="" style="endArrow=classic;html=1;rounded=0;entryX=0.5;entryY=0;entryDx=0;entryDy=0;" parent="1" source="wNIGlw4H_V67VYTFV1LY-15" target="wNIGlw4H_V67VYTFV1LY-20" edge="1">
          <mxGeometry width="50" height="50" relative="1" as="geometry">
            <mxPoint x="480" y="620" as="sourcePoint" />
            <mxPoint x="530" y="570" as="targetPoint" />
          </mxGeometry>
        </mxCell>
        <mxCell id="wNIGlw4H_V67VYTFV1LY-33" value="" style="endArrow=classic;startArrow=classic;html=1;rounded=0;exitX=0.5;exitY=0;exitDx=0;exitDy=0;entryX=0.5;entryY=0;entryDx=0;entryDy=0;" parent="1" source="wNIGlw4H_V67VYTFV1LY-21" target="wNIGlw4H_V67VYTFV1LY-22" edge="1">
          <mxGeometry width="50" height="50" relative="1" as="geometry">
            <mxPoint x="480" y="520" as="sourcePoint" />
            <mxPoint x="530" y="470" as="targetPoint" />
            <Array as="points">
              <mxPoint x="500" y="790" />
              <mxPoint x="735" y="790" />
            </Array>
          </mxGeometry>
        </mxCell>
        <mxCell id="wNIGlw4H_V67VYTFV1LY-34" value="" style="endArrow=none;html=1;rounded=0;entryX=0.5;entryY=1;entryDx=0;entryDy=0;" parent="1" target="wNIGlw4H_V67VYTFV1LY-20" edge="1">
          <mxGeometry width="50" height="50" relative="1" as="geometry">
            <mxPoint x="620" y="790" as="sourcePoint" />
            <mxPoint x="530" y="470" as="targetPoint" />
          </mxGeometry>
        </mxCell>
        <mxCell id="wNIGlw4H_V67VYTFV1LY-35" value="" style="endArrow=classic;html=1;rounded=0;exitX=1;exitY=0.5;exitDx=0;exitDy=0;entryX=1;entryY=0.5;entryDx=0;entryDy=0;entryPerimeter=0;" parent="1" source="wNIGlw4H_V67VYTFV1LY-15" target="wNIGlw4H_V67VYTFV1LY-5" edge="1">
          <mxGeometry width="50" height="50" relative="1" as="geometry">
            <mxPoint x="480" y="620" as="sourcePoint" />
            <mxPoint x="530" y="570" as="targetPoint" />
            <Array as="points">
              <mxPoint x="780" y="620" />
              <mxPoint x="780" y="340" />
            </Array>
          </mxGeometry>
        </mxCell>
        <mxCell id="wNIGlw4H_V67VYTFV1LY-36" value="Actor" style="shape=umlActor;verticalLabelPosition=bottom;verticalAlign=top;html=1;outlineConnect=0;" parent="1" vertex="1">
          <mxGeometry x="590" y="10" width="30" height="60" as="geometry" />
        </mxCell>
        <mxCell id="wNIGlw4H_V67VYTFV1LY-38" value="" style="endArrow=classic;startArrow=classic;html=1;rounded=0;exitX=0.5;exitY=0;exitDx=0;exitDy=0;entryX=0.5;entryY=0;entryDx=0;entryDy=0;" parent="1" source="wNIGlw4H_V67VYTFV1LY-2" target="wNIGlw4H_V67VYTFV1LY-1" edge="1">
          <mxGeometry width="50" height="50" relative="1" as="geometry">
            <mxPoint x="460" y="480" as="sourcePoint" />
            <mxPoint x="510" y="430" as="targetPoint" />
            <Array as="points">
              <mxPoint x="510" y="140" />
              <mxPoint x="710" y="140" />
            </Array>
          </mxGeometry>
        </mxCell>
        <mxCell id="wNIGlw4H_V67VYTFV1LY-39" value="" style="endArrow=classic;html=1;rounded=0;" parent="1" edge="1">
          <mxGeometry width="50" height="50" relative="1" as="geometry">
            <mxPoint x="605" y="110" as="sourcePoint" />
            <mxPoint x="605" y="140" as="targetPoint" />
          </mxGeometry>
        </mxCell>
        <mxCell id="wNIGlw4H_V67VYTFV1LY-41" value="Actor" style="shape=umlActor;verticalLabelPosition=bottom;verticalAlign=top;html=1;outlineConnect=0;" parent="1" vertex="1">
          <mxGeometry x="605" y="980" width="30" height="60" as="geometry" />
        </mxCell>
        <mxCell id="wNIGlw4H_V67VYTFV1LY-44" value="" style="endArrow=none;html=1;rounded=0;exitX=0.5;exitY=1;exitDx=0;exitDy=0;entryX=0.5;entryY=1;entryDx=0;entryDy=0;" parent="1" source="wNIGlw4H_V67VYTFV1LY-21" target="wNIGlw4H_V67VYTFV1LY-22" edge="1">
          <mxGeometry width="50" height="50" relative="1" as="geometry">
            <mxPoint x="460" y="530" as="sourcePoint" />
            <mxPoint x="510" y="480" as="targetPoint" />
            <Array as="points">
              <mxPoint x="500" y="910" />
              <mxPoint x="735" y="910" />
            </Array>
          </mxGeometry>
        </mxCell>
        <mxCell id="wNIGlw4H_V67VYTFV1LY-45" value="" style="endArrow=classic;html=1;rounded=0;" parent="1" edge="1">
          <mxGeometry width="50" height="50" relative="1" as="geometry">
            <mxPoint x="620" y="910" as="sourcePoint" />
            <mxPoint x="620" y="960" as="targetPoint" />
          </mxGeometry>
        </mxCell>
        <mxCell id="wNIGlw4H_V67VYTFV1LY-48" value="&lt;h1&gt;&lt;font style=&quot;font-size: 18px&quot;&gt;AUTHORIZATION&lt;/font&gt;&lt;br&gt;&lt;/h1&gt;&lt;p&gt;JWT авторизация с&amp;nbsp; Refresh и Access токенами и хранением для валидации в Redis (Swagger)&lt;br&gt;&lt;/p&gt;" style="text;html=1;strokeColor=none;fillColor=none;spacing=5;spacingTop=-20;whiteSpace=wrap;overflow=hidden;rounded=0;" parent="1" vertex="1">
          <mxGeometry x="40" y="70" width="230" height="120" as="geometry" />
        </mxCell>
        <mxCell id="wNIGlw4H_V67VYTFV1LY-50" value="&lt;h1&gt;&lt;font style=&quot;font-size: 18px&quot;&gt;DASHBOARD&lt;/font&gt;&lt;br&gt;&lt;/h1&gt;&lt;p&gt;Создание пользователем новых тестов, которые после будут постоянно исполняться сервисом с определенным интервалом. (Swagger)&lt;br&gt;&lt;/p&gt;" style="text;html=1;strokeColor=none;fillColor=none;spacing=5;spacingTop=-20;whiteSpace=wrap;overflow=hidden;rounded=0;" parent="1" vertex="1">
          <mxGeometry x="40" y="210" width="230" height="120" as="geometry" />
        </mxCell>
        <mxCell id="wNIGlw4H_V67VYTFV1LY-51" value="&lt;h1&gt;&lt;font style=&quot;font-size: 18px&quot;&gt;DISTRIBUTOR&lt;br&gt;&lt;/font&gt;&lt;/h1&gt;Создает cursor на тесты в базе данных и равномерно во времени отправляет и в очередь" style="text;html=1;strokeColor=none;fillColor=none;spacing=5;spacingTop=-20;whiteSpace=wrap;overflow=hidden;rounded=0;" parent="1" vertex="1">
          <mxGeometry x="40" y="450" width="230" height="120" as="geometry" />
        </mxCell>
        <mxCell id="wNIGlw4H_V67VYTFV1LY-54" value="&lt;h1&gt;&lt;font style=&quot;font-size: 18px&quot;&gt;TESTER&lt;/font&gt;&lt;/h1&gt;&lt;div&gt;Забирает из очереди доступные тесты и выполняет их заданными параметрами, в случе если необходимо создает сообщение для пользователя и отпарвляет его в очередь&lt;/div&gt;&lt;div&gt;&lt;br&gt;&lt;/div&gt;" style="text;html=1;strokeColor=none;fillColor=none;spacing=5;spacingTop=-20;whiteSpace=wrap;overflow=hidden;rounded=0;" parent="1" vertex="1">
          <mxGeometry x="40" y="580" width="230" height="140" as="geometry" />
        </mxCell>
        <mxCell id="wNIGlw4H_V67VYTFV1LY-55" value="&lt;h1&gt;&lt;font style=&quot;font-size: 18px&quot;&gt;MAIL&lt;/font&gt;&lt;br&gt;&lt;/h1&gt;&lt;div&gt;Забирает сообщение из очереди и отправляет его пользователю на цказанный email&lt;br&gt;&lt;/div&gt;&lt;div&gt;&lt;br&gt;&lt;/div&gt;" style="text;html=1;strokeColor=none;fillColor=none;spacing=5;spacingTop=-20;whiteSpace=wrap;overflow=hidden;rounded=0;" parent="1" vertex="1">
          <mxGeometry x="40" y="740" width="230" height="110" as="geometry" />
        </mxCell>
        <mxCell id="wNIGlw4H_V67VYTFV1LY-57" value="&lt;h1&gt;&lt;font style=&quot;font-size: 18px&quot;&gt;TELEGRAM&lt;/font&gt;&lt;br&gt;&lt;/h1&gt;&lt;div&gt;&lt;div&gt;Забирает сообщение из очереди и отправляет его пользователю Telegram&lt;br&gt;(Не готово)&lt;br&gt;&lt;/div&gt;&lt;/div&gt;&lt;div&gt;&lt;br&gt;&lt;/div&gt;" style="text;html=1;strokeColor=none;fillColor=none;spacing=5;spacingTop=-20;whiteSpace=wrap;overflow=hidden;rounded=0;" parent="1" vertex="1">
          <mxGeometry x="40" y="870" width="230" height="120" as="geometry" />
        </mxCell>
        <mxCell id="wNIGlw4H_V67VYTFV1LY-58" value="&lt;h1&gt;&lt;font style=&quot;font-size: 18px&quot;&gt;MIGRATOR&lt;/font&gt;&lt;br&gt;&lt;/h1&gt;&lt;div&gt;&lt;div&gt;Поднимается отдельно в контейнере для выполнения миграций в PG&lt;br&gt;&lt;/div&gt;&lt;/div&gt;&lt;div&gt;&lt;br&gt;&lt;/div&gt;" style="text;html=1;strokeColor=none;fillColor=none;spacing=5;spacingTop=-20;whiteSpace=wrap;overflow=hidden;rounded=0;" parent="1" vertex="1">
          <mxGeometry x="40" y="340" width="230" height="120" as="geometry" />
        </mxCell>
        <mxCell id="wNIGlw4H_V67VYTFV1LY-59" value="" style="endArrow=classic;html=1;rounded=0;fontSize=18;entryX=1;entryY=0.5;entryDx=0;entryDy=0;entryPerimeter=0;exitX=0;exitY=0.5;exitDx=0;exitDy=0;" parent="1" source="wNIGlw4H_V67VYTFV1LY-2" target="wNIGlw4H_V67VYTFV1LY-3" edge="1">
          <mxGeometry width="50" height="50" relative="1" as="geometry">
            <mxPoint x="260" y="510" as="sourcePoint" />
            <mxPoint x="310" y="460" as="targetPoint" />
          </mxGeometry>
        </mxCell>
        <mxCell id="wNIGlw4H_V67VYTFV1LY-61" value="MIGRATOR" style="text;html=1;align=center;verticalAlign=middle;resizable=0;points=[];autosize=1;strokeColor=none;fillColor=none;" parent="1" vertex="1">
          <mxGeometry x="395" y="330" width="80" height="20" as="geometry" />
        </mxCell>
        <mxCell id="wNIGlw4H_V67VYTFV1LY-63" value="" style="endArrow=none;dashed=1;html=1;dashPattern=1 3;strokeWidth=2;rounded=0;fontSize=18;entryX=0;entryY=0.5;entryDx=0;entryDy=0;entryPerimeter=0;exitX=1;exitY=0.5;exitDx=0;exitDy=0;" parent="1" source="wNIGlw4H_V67VYTFV1LY-62" target="wNIGlw4H_V67VYTFV1LY-5" edge="1">
          <mxGeometry width="50" height="50" relative="1" as="geometry">
            <mxPoint x="260" y="510" as="sourcePoint" />
            <mxPoint x="310" y="460" as="targetPoint" />
          </mxGeometry>
        </mxCell>
      </root>
    </mxGraphModel>
  </diagram>
</mxfile>
